Regression Statistical Analysis of NBA Final Champions
…
I dropped the first column which is just a number of row, detected missing values and imputed with reasonable value, changed variable type from integer to factor for Win, Home, and Game, made a new factor variable IS_OT based on if the game went over time or no.

3 Task 3: Listing of My Tibble

cd

# A tibble: 216 x 18
    Year Team  Game  Win   Home    FGA   FGP   TPA   TPP   FTA   FTP   TRB
   <int> <fct> <fct> <fct> <fct> <int> <dbl> <int> <dbl> <int> <dbl> <int>
 1  1980 Lake 1     win   Home     89 0.539     0 0        15 0.867    43
 2  1980 Lake 2     loss  Home     95 0.505     1 0        12 0.667    52
 3  1980 Lake 3     win   Away     92 0.478     1 0        30 0.767    56
 4  1980 Lake 4     loss  Away     93 0.473     0 0        19 0.737    49
 5  1980 Lake 5     win   Home     91 0.451     0 0        33 0.788    56
 6  1980 Lake 6     win   Away     92 0.489     2 0        35 0.943    52
 7  1981 Celt 1     win   Home     95 0.432     1 0        20 0.800    54
 8  1981 Celt 2     loss  Home     82 0.500     3 0        13 0.615    48
 9  1981 Celt 3     win   Away     89 0.449     3 0.667    19 0.632    44
10  1981 Celt 4     loss  Away     74 0.473     3 0        24 0.667    47
# ... with 206 more rows, and 6 more variables: AST <int>, STL <int>, TOV
#   <int>, PF <int>, PTS <int>, IS_OT <fct>
…
