Dobutamine Stress Echocardiography and the Prediction of Cardiac Events
…
baseEF is missing for three patients

basebp is missing for four patients

bhr is missing for five patients

In our analyses, well need to do some imputation, but our final tibble will display these missing values as NA.

3 Task 3: Tidied Tibble

Our tibble stressEcho contains 558 rows (patients) and 13 columns (variables). Each variable is contained in a column, and each row represents a single subject. All variables now have appropriate types.

stressEcho

# A tibble: 558 x 13
   patient   age female   bhr basebp baseEF  dose hx_smoking chestpain_c
     <int> <int>  <int> <int>  <int>  <int> <int> <fct>      <fct>      
 1       1    85      0    92    103     27    40 non-smoker 0          
 2       2    73      0    62    139     39    40 non-smoker 0          
 3       3    73      0    62    139     39    40 non-smoker 0          
 4       4    57      1    93    118     42    30 non-smoker 0          
 5       5    34      0    89    103     45    40 non-smoker 1          
 6       6    71      0    58    100     46    40 non-smoker 0          
 7       7    81      1    63    120     48    40 non-smoker 1          
 8       8    90      1    86    161     50    40 non-smoker 0          
 9       9    81      1    69    143     52    40 non-smoker 0          
10      10    86      0    76    105     52    40 non-smoker 0          
# ... with 548 more rows, and 4 more variables: ecg <fct>, SE_res <fct>,
#   dobEF <int>, event <dbl>
…
