Output for Quiz 2
…
due at 5 PM 2018-05-01

Introduction

The output below (with R code included as necessary) and labeled Items 1 - 30 here will be needed for you to respond to several questions on Quiz 2. Further details will be found in Quiz 2.

library(rms); library(car); library(leaps); library(lars)
library(tidyverse)

Item 1.

mydat

# A tibble: 24 x 8
   subject forearm bicep chest  neck waist height  mass
     <int>   <dbl> <dbl> <dbl> <dbl> <dbl>  <dbl> <dbl>
 1       1    29.5  36.5 107.   39.0  90.5   187.  86.0
 2       2    24.0  30.0  92.5  35.5  76.0   169.  55.0
 3       3    26.5  32.5  89.0  35.0  81.0   171.  66.5
 4       4    28.5  34.0 104.   39.0  91.5   183.  81.0
 5       5    28.5  37.0 110.   39.0  80.0   170.  70.0
 6       6    30.5  38.0 112.   39.0 101.    180.  94.5
 7       7    27.0  31.0  95.0  37.0  84.0   182.  69.5
 8       8    26.5  29.0  93.0  35.0  74.0   178.  65.5
 9       9    26.5  29.0  93.0  35.0  76.0   178.  66.5
10      10    29.5  36.0 101.   38.5  82.0   186.  74.5
# ... with 14 more rows
…
