Assignment 3 Answer Sketch
…
The S shape in the Normal Q-Q plot suggests that the data are substantially lighter tailed compared to a Normal distribution.

2.4 Task 3

Build a plot of a quantitative variable, and another plot of a quantitative and a categorical variable, for one or more subsets of the data that interest you. Use dplyr functions to create a subset or two you want to plot. Explore more than one plot type and try to use more than one geom in your work.

Well start by looking at Life Expectancy (a quantitative variable) across all nations in 1977.

gapminder_1977 <- 
    gapminder %>% 
    filter(year == 1977)

gapminder_1977

# A tibble: 142 x 6
   country     continent  year lifeExp      pop gdpPercap
   <fct>       <fct>     <int>   <dbl>    <int>     <dbl>
 1 Afghanistan Asia       1977    38.4 14880372       786
 2 Albania     Europe     1977    68.9  2509048      3533
 3 Algeria     Africa     1977    58.0 17152804      4910
 4 Angola      Africa     1977    39.5  6162675      3009
 5 Argentina   Americas   1977    68.5 26983828     10079
 6 Australia   Oceania    1977    73.5 14074100     18334
 7 Austria     Europe     1977    72.2  7568430     19749
 8 Bahrain     Asia       1977    65.6   297410     19340
 9 Bangladesh  Asia       1977    46.9 80428306       660
10 Belgium     Europe     1977    72.8  9821800     19118
# ... with 132 more rows
…
2.5 Task 4

Make a scatterplot which shows the relationship between two quantitative variables, either for a clearly specified subset of interest, or for the data as a whole. Include a regression line in the plot. Make an active choice as to which variable should be the predictor and which the outcome.

Well use per-capita gross domestic product (gdpPercap) as a predictor of an outcome, lifeExp, here, for all countries in the continents of Africa and the Americas, in the most recent available data period (2007).

First, Ill create the data set with the pieces I need.

gap_4 <- gapminder %>%
    filter(year == 2007) %>%
    filter(continent %in% c("Africa", "Americas")) %>%
    select(country, year, continent, gdpPercap, lifeExp)
gap_4

# A tibble: 77 x 5
   country       year continent gdpPercap lifeExp
   <fct>        <int> <fct>         <dbl>   <dbl>
 1 Algeria       2007 Africa         6223    72.3
 2 Angola        2007 Africa         4797    42.7
 3 Argentina     2007 Americas      12779    75.3
 4 Benin         2007 Africa         1441    56.7
 5 Bolivia       2007 Americas       3822    65.6
 6 Botswana      2007 Africa        12570    50.7
 7 Brazil        2007 Americas       9066    72.4
 8 Burkina Faso  2007 Africa         1217    52.3
 9 Burundi       2007 Africa          430    49.6
10 Cameroon      2007 Africa         2042    50.4
# ... with 67 more rows
…
