Quiz 1 Bonus Materials
…
dat01 <- data_frame(subject = round(10000*order, 0),
                    time_to_repair = round(time,0),
                    treat = treat)

dat01 <- dat01 %>% arrange(subject)

write_csv(dat01, "dat01.csv")

rm(time, treat, order)

dat01

# A tibble: 120 x 3
   subject time_to_repair treat
     <dbl>          <dbl> <dbl>
 1     38.           131.    3.
 2    120.           137.    0.
 3    153.           111.    1.
 4    278.           101.    2.
 5    294.           130.    2.
 6    296.           127.    3.
 7    383.           136.    2.
 8    442.           134.    0.
 9    525.           101.    1.
10    562.           131.    3.
# ... with 110 more rows
…
